Chapter 5 Does captivity change the microbial community? | AlberdiLab | Martin-Bideguren et al. 2025
…
structural_zeros %>% 
  filter(present=="wild") %>% 
  select(1,5:10)

# A tibble: 24 × 7
# Rowwise: 
   genome                phylum              class               order                   family                 genus          species
   <chr>                 <chr>               <chr>               <chr>                   <chr>                  <chr>          <chr>  
 1 AH1_2nd_10:bin_000009 p__Desulfobacterota c__Desulfovibrionia o__Desulfovibrionales   f__Desulfovibrionaceae g__Bilophila   s__    
 2 AH1_2nd_10:bin_000018 p__Bacillota_A      c__Clostridia       o__Lachnospirales       f__Lachnospiraceae     g__MGBC140009  s__    
 3 AH1_2nd_12:bin_000063 p__Bacillota_A      c__Clostridia       o__Lachnospirales       f__Lachnospiraceae     g__CHH4-2      s__    
 4 AH1_2nd_13:bin_000050 p__Bacillota_A      c__Clostridia       o__Oscillospirales      f__Ruminococcaceae     g__            s__    
 5 AH1_2nd_14:bin_000027 p__Bacillota_A      c__Clostridia       o__Peptostreptococcales f__Anaerovoracaceae    g__Emergencia  s__    
 6 AH1_2nd_14:bin_000032 p__Bacillota_C      c__Negativicutes    o__Selenomonadales      f__Massilibacillaceae  g__            s__    
 7 AH1_2nd_16:bin_000008 p__Bacillota_A      c__Clostridia       o__Lachnospirales       f__                    g__            s__    
 8 AH1_2nd_18:bin_000033 p__Bacillota        c__Bacilli          o__Erysipelotrichales   f__Coprobacillaceae    g__Beduini     s__    
 9 AH1_2nd_19:bin_000017 p__Bacillota_A      c__Clostridia       o__Lachnospirales       f__Lachnospiraceae     g__Caccomorpha s__    
10 AH1_2nd_19:bin_000031 p__Bacillota_A      c__Clostridia       o__Lachnospirales       f__Lachnospiraceae     g__Lachnotalea s__    
# ℹ 14 more rows

Acclimation

structural_zeros %>% 
  filter(present=="acclimation") %>% 
  select(1,5:10)

# A tibble: 32 × 7
# Rowwise: 
   genome                phylum             class                  order                  family                  genus               species                       
   <chr>                 <chr>              <chr>                  <chr>                  <chr>                   <chr>               <chr>                         
 1 AH1_2nd_10:bin_000010 p__Cyanobacteriota c__Vampirovibrionia    o__Gastranaerophilales f__Gastranaerophilaceae g__CALURL01         s__                           
 2 AH1_2nd_12:bin_000001 p__Pseudomonadota  c__Gammaproteobacteria o__Pseudomonadales     f__Moraxellaceae        g__Acinetobacter    s__Acinetobacter johnsonii    
 3 AH1_2nd_14:bin_000015 p__Bacillota_A     c__Clostridia          o__Christensenellales  f__UBA3700              g__                 s__                           
 4 AH1_2nd_14:bin_000063 p__Bacillota_A     c__Clostridia          o__Lachnospirales      f__Lachnospiraceae      g__Blautia_A        s__                           
 5 AH1_2nd_15:bin_000001 p__Pseudomonadota  c__Alphaproteobacteria o__Rhizobiales         f__Rhizobiaceae         g__Agrobacterium    s__Agrobacterium tumefaciens_H
 6 AH1_2nd_16:bin_000033 p__Bacteroidota    c__Bacteroidia         o__Bacteroidales       f__                     g__                 s__                           
 7 AH1_2nd_16:bin_000096 p__Bacillota_A     c__Clostridia          o__Oscillospirales     f__Ruminococcaceae      g__Ruthenibacterium s__                           
 8 AH1_2nd_17:bin_000015 p__Bacillota       c__Bacilli             o__Erysipelotrichales  f__Erysipelotrichaceae  g__                 s__                           
 9 AH1_2nd_17:bin_000023 p__Bacillota       c__Bacilli             o__Erysipelotrichales  f__Coprobacillaceae     g__Coprobacillus    s__                           
10 AH1_2nd_18:bin_000039 p__Bacteroidota    c__Bacteroidia         o__Bacteroidales       f__Rikenellaceae        g__Alistipes        s__                           
# ℹ 22 more rows
…
